<?xml version="1.0" encoding="UTF-8"?>
<!-- Created with Inkscape (http://www.inkscape.org/) -->
<svg width="672" height="180" version="1.1" viewBox="0 0 672 180" xmlns="http://www.w3.org/2000/svg">
 <defs>
  <linearGradient id="linearGradient17174" x1="22.032" x2="288.83" y1="111.61" y2="111.61" gradientTransform="matrix(2.3749,0,0,4.7873,-33.562,-444.29)" gradientUnits="userSpaceOnUse">
   <stop stop-color="#ff0" offset="0"/>
   <stop stop-color="#ff0" stop-opacity="0" offset="1"/>
  </linearGradient>
 </defs>
 <rect x="9.0477" y="13.798" width="653.9" height="152.4" fill="url(#linearGradient17174)" fill-rule="evenodd" stroke="#ffb700" stroke-linecap="round" stroke-linejoin="round" stroke-width="4"/>
</svg>
