<?xml version="1.0" encoding="UTF-8"?>
<!-- Created with Inkscape (http://www.inkscape.org/) -->
<svg width="672" height="250" version="1.1" viewBox="0 0 672 250" xmlns="http://www.w3.org/2000/svg" xmlns:xlink="http://www.w3.org/1999/xlink">
 <defs>
  <linearGradient id="linearGradient22643">
   <stop stop-color="#ffffcf" stop-opacity=".32941" offset="0"/>
   <stop stop-color="#ffffcf" stop-opacity=".32941" offset=".43424"/>
   <stop stop-color="#ffffd9" stop-opacity="0" offset="1"/>
  </linearGradient>
  <linearGradient id="linearGradient2582">
   <stop stop-color="#e6745b" stop-opacity=".99467" offset="0"/>
   <stop stop-color="#e6735a" offset=".81336"/>
   <stop stop-color="#df4f2f" offset="1"/>
  </linearGradient>
  <filter id="filter46382" x="-.012" y="-.012" width="1.024" height="1.024" color-interpolation-filters="sRGB">
   <feGaussianBlur stdDeviation="4.9414502"/>
  </filter>
  <filter id="filter2886" x="-.04825" y="-.035708" width="1.0965" height="1.0709" color-interpolation-filters="sRGB">
   <feGaussianBlur stdDeviation="0.28868274"/>
  </filter>
  <filter id="filter2890" x="-.056204" y="-.03276" width="1.1124" height="1.0654" color-interpolation-filters="sRGB">
   <feGaussianBlur stdDeviation="0.28868274"/>
  </filter>
  <filter id="filter2894" x="-.055608" y="-.033332" width="1.1112" height="1.0664" color-interpolation-filters="sRGB">
   <feGaussianBlur stdDeviation="0.28868274"/>
  </filter>
  <filter id="filter2898" x="-.056341" y="-.032562" width="1.1127" height="1.0651" color-interpolation-filters="sRGB">
   <feGaussianBlur stdDeviation="0.28868274"/>
  </filter>
  <filter id="filter2902" x="-.054525" y="-.033526" width="1.1089" height="1.0668" color-interpolation-filters="sRGB">
   <feGaussianBlur stdDeviation="0.28868274"/>
  </filter>
  <filter id="filter2906" x="-.050074" y="-.034834" width="1.1001" height="1.0692" color-interpolation-filters="sRGB">
   <feGaussianBlur stdDeviation="0.28868274"/>
  </filter>
  <filter id="filter2910" x="-.045614" y="-.03698" width="1.0912" height="1.0735" color-interpolation-filters="sRGB">
   <feGaussianBlur stdDeviation="0.29257029"/>
  </filter>
  <filter id="filter2914" x="-.041434" y="-.039838" width="1.083" height="1.0794" color-interpolation-filters="sRGB">
   <feGaussianBlur stdDeviation="0.29414749"/>
  </filter>
  <filter id="filter2918" x="-.044134" y="-.037648" width="1.0883" height="1.0749" color-interpolation-filters="sRGB">
   <feGaussianBlur stdDeviation="0.28868274"/>
  </filter>
  <filter id="filter2922" x="-.037261" y="-.02304" width="1.0747" height="1.0464" color-interpolation-filters="sRGB">
   <feGaussianBlur stdDeviation="0.037851796"/>
  </filter>
  <filter id="filter2926" x="-.031652" y="-.025071" width="1.0633" height="1.0506" color-interpolation-filters="sRGB">
   <feGaussianBlur stdDeviation="0.038662133"/>
  </filter>
  <filter id="filter2930" x="-.029363" y="-.026646" width="1.0586" height="1.0536" color-interpolation-filters="sRGB">
   <feGaussianBlur stdDeviation="0.038869403"/>
  </filter>
  <filter id="filter2934" x="-.032062" y="-.041669" width="1.0636" height="1.0833" color-interpolation-filters="sRGB">
   <feGaussianBlur stdDeviation="0.19470831"/>
  </filter>
  <filter id="filter2938" x="-.02322" y="-.038363" width="1.0462" height="1.0767" color-interpolation-filters="sRGB">
   <feGaussianBlur stdDeviation="0.037595953"/>
  </filter>
  <filter id="filter2942" x="-.022561" y="-.038911" width="1.0451" height="1.0778" color-interpolation-filters="sRGB">
   <feGaussianBlur stdDeviation="0.037889267"/>
  </filter>
  <filter id="filter2946" x="-.023012" y="-.038275" width="1.0458" height="1.0766" color-interpolation-filters="sRGB">
   <feGaussianBlur stdDeviation="0.037750805"/>
  </filter>
  <filter id="filter3108" x="-.026062" y="-.030086" width="1.0525" height="1.0602" color-interpolation-filters="sRGB">
   <feGaussianBlur stdDeviation="0.038818735"/>
  </filter>
  <filter id="filter3112" x="-.027975" y="-.027786" width="1.0562" height="1.0558" color-interpolation-filters="sRGB">
   <feGaussianBlur stdDeviation="0.038896722"/>
  </filter>
  <filter id="filter3116" x="-.033681" y="-.024246" width="1.0673" height="1.049" color-interpolation-filters="sRGB">
   <feGaussianBlur stdDeviation="0.038303208"/>
  </filter>
  <filter id="filter3120" x="-.037511" y="-.023142" width="1.0749" height="1.0466" color-interpolation-filters="sRGB">
   <feGaussianBlur stdDeviation="0.037708226"/>
  </filter>
  <filter id="filter3124" x="-.022584" y="-.038923" width="1.0452" height="1.0778" color-interpolation-filters="sRGB">
   <feGaussianBlur stdDeviation="0.037826466"/>
  </filter>
  <filter id="filter3128" x="-.02254" y="-.038954" width="1.0451" height="1.0779" color-interpolation-filters="sRGB">
   <feGaussianBlur stdDeviation="0.037890928"/>
  </filter>
  <filter id="filter3132" x="-.022679" y="-.038545" width="1.0455" height="1.0771" color-interpolation-filters="sRGB">
   <feGaussianBlur stdDeviation="0.037808011"/>
  </filter>
  <filter id="filter3136" x="-.023716" y="-.034847" width="1.0479" height="1.0697" color-interpolation-filters="sRGB">
   <feGaussianBlur stdDeviation="0.038224871"/>
  </filter>
  <filter id="filter2942-3" x="-.022561" y="-.038911" width="1.0451" height="1.0778" color-interpolation-filters="sRGB">
   <feGaussianBlur stdDeviation="0.037889267"/>
  </filter>
  <filter id="filter2942-5" x="-.022561" y="-.038911" width="1.0451" height="1.0778" color-interpolation-filters="sRGB">
   <feGaussianBlur stdDeviation="0.037889267"/>
  </filter>
  <filter id="filter2942-6" x="-.022561" y="-.038911" width="1.0451" height="1.0778" color-interpolation-filters="sRGB">
   <feGaussianBlur stdDeviation="0.037889267"/>
  </filter>
  <filter id="filter2942-1" x="-.022561" y="-.038911" width="1.0451" height="1.0778" color-interpolation-filters="sRGB">
   <feGaussianBlur stdDeviation="0.037889267"/>
  </filter>
  <radialGradient id="radialGradient6425" cx="1567.9" cy="-107.29" r="610.92" gradientTransform="matrix(.12138 .070076 -.070076 .12138 -103.29 25.85)" gradientUnits="userSpaceOnUse" xlink:href="#linearGradient2582"/>
  <radialGradient id="radialGradient6427" cx="1577.9" cy="-107.29" r="101.13" gradientTransform="matrix(.14015 -.0002294 .00024874 .15196 -76.503 75.663)" gradientUnits="userSpaceOnUse" xlink:href="#linearGradient22643"/>
 </defs>
 <g transform="matrix(2.4189 0 0 2.4189 225.62 -241.63)" fill-rule="evenodd" stroke="#e3ab6b" stroke-linecap="round" stroke-linejoin="round" stroke-width="1.0583">
  <path d="m117.83 118.21c-3.047 0-6.7122 2.4718-7.6552 5.4999-2.608 8.3747 1.1073 17.199-0.0523 23.508l-7.5157 37.682c-0.60773 3.047 1.356 5.4999 4.403 5.4999h51.647c3.047 0 5.9892-2.4529 6.5969-5.4999l7.5237-37.722c3.3242-8.6361 8.9043-15.053 9.1828-23.468 0.0994-3.0057-2.4143-5.4999-5.4613-5.4999-9.7782 0-19.768 1.0583-29.546 1.0583-9.7782 0-19.345-1.0583-29.124-1.0583z" fill="#e3ab6b"/>
  <path d="m115.71 116.09c-3.047 0-6.7122 2.4718-7.6552 5.4999-2.608 8.3747 1.1073 17.199-0.0523 23.508l-7.5157 37.682c-0.60773 3.047 1.356 5.4999 4.403 5.4999h51.647c3.047 0 5.9892-2.4529 6.5969-5.4999l7.5237-37.722c3.3242-8.6361 8.9043-15.053 9.1828-23.468 0.0994-3.0057-2.4143-5.4999-5.4613-5.4999-9.7782 0-19.768 1.0583-29.546 1.0583-9.7782 0-19.345-1.0583-29.124-1.0583z" fill="#f0d4ad"/>
 </g>
 <g transform="matrix(.94397 0 -.18763 .94397 483.03 6.9921)" fill-rule="evenodd" stroke-linecap="round" stroke-linejoin="round">
  <path d="m143.88 54.671a85.622 85.622 0 0 0-116.96 31.34 85.622 85.622 0 0 0 31.34 116.96 85.622 85.622 0 0 0 116.96-31.34 85.622 85.622 0 0 0-31.34-116.96zm-8.1832 14.174a69.256 69.256 0 0 1 19.51 17.117l-48.681 31.908 6.6159 11.459 52.135-26.023a69.256 69.256 0 0 1-4.2307 60.143 69.256 69.256 0 0 1-49.918 33.87l-3.3033-58.296-13.232-1.5e-4 -3.541 58.325a69.256 69.256 0 0 1-24.611-8.549 69.256 69.256 0 0 1-29.692-85.499l52.107 26.272 6.6159-11.459-48.691-32.196a69.256 69.256 0 0 1 88.916-17.072z" fill="#c43d1c" stroke-width=".56061"/>
  <circle transform="matrix(.12138 .070076 -.070076 .12138 -125.22 137.74)" cx="1304.2" cy="-876.88" r="494.15" fill="#ca1005" filter="url(#filter46382)" stroke-width="4"/>
  <path d="m137.34 48.552a85.622 85.622 0 0 0-116.96 31.34 85.622 85.622 0 0 0 31.34 116.96 85.622 85.622 0 0 0 116.96-31.34 85.622 85.622 0 0 0-31.34-116.96zm-8.1832 14.174a69.256 69.256 0 0 1 19.51 17.117l-48.681 31.908 6.6159 11.459 52.135-26.023a69.256 69.256 0 0 1-4.2307 60.143 69.256 69.256 0 0 1-49.918 33.87l-3.3033-58.296-13.232-1.5e-4 -3.541 58.325a69.256 69.256 0 0 1-24.611-8.549 69.256 69.256 0 0 1-29.692-85.499l52.107 26.272 6.6159-11.459-48.691-32.196a69.256 69.256 0 0 1 88.916-17.072z" fill="url(#radialGradient6425)" stroke-width=".56061"/>
  <path d="m118.48 81.234a47.884 47.884 0 0 0-55.076 5.2369l17.579 10.149c6.8332 3.9452 9.1585 12.622 5.2133 19.456l-2.4744 4.2858c-3.9452 6.8333-12.622 9.1581-19.456 5.213l-16.994-9.8114a47.884 47.884 0 0 0 23.324 48.409 47.884 47.884 0 0 0 8.1314 3.6826l1.4e-5 -20.371c0-7.8904 6.3521-14.243 14.242-14.243l4.9488 1.3e-4c7.8903 0 14.243 6.3521 14.243 14.242l-9e-5 19.675a47.884 47.884 0 0 0 23.846-20.514 47.884 47.884 0 0 0 5.5387-32.825l-17.642 10.185c-6.8333 3.9452-15.511 1.6202-19.456-5.213l-2.4744-4.286c-3.9452-6.8333-1.62-15.51 5.2133-19.456l17.039-9.8374a47.884 47.884 0 0 0-5.746-3.979z" fill="#f7b393" stroke-width=".52901"/>
  <circle transform="rotate(30)" cx="144.62" cy="58.997" r="14.174" fill="url(#radialGradient6427)" stroke-width=".56061"/>
  <g fill="#fdee9b" stroke="#fc9d53">
   <path transform="matrix(.14015 0 0 .14015 -125.22 137.74)" d="m1584.4-524.15c-4.5258 17.918-7.4303 30.014-16.596 30.014s-12.937-12.983-16.596-30.014c-3.4818-16.206 7.4303-30.014 16.596-30.014s20.655 13.942 16.596 30.014z" filter="url(#filter2898)" opacity=".42824" stroke-width="2.5235"/>
   <path transform="matrix(.14015 0 0 .14015 -125.22 137.74)" d="m1489.8-516.86c-0.2583 18.479-0.2861 30.918-9.2032 33.039-8.9171 2.1202-15.59-9.6384-23.089-25.361-7.1362-14.961 0.286-30.918 9.2031-33.039 8.9172-2.1202 23.32 8.7862 23.089 25.361z" filter="url(#filter2894)" opacity=".621" stroke-width="2.5235"/>
   <path d="m77.01 66.998c0.27111 2.5759 0.47392 4.3075-0.73178 4.7507-1.2057 0.44322-2.3296-1.0823-3.6345-3.1456-1.2417-1.9635-0.47392-4.3075 0.73178-4.7507 1.2057-0.44322 3.3913 0.83523 3.6345 3.1456z" stroke-width=".35368"/>
   <path transform="matrix(.14015 0 0 .14015 -125.22 137.74)" d="m1392.4-484.64c4.3612 17.959 7.4384 30.012-0.6676 34.29-8.1059 4.2783-17.501-5.4433-28.687-18.797-10.644-12.707-7.4384-30.012 0.6676-34.29 8.1059-4.2783 24.775 2.6889 28.687 18.797z" filter="url(#filter2886)" opacity=".3753" stroke-width="2.5235"/>
   <path transform="matrix(.14015 0 0 .14015 -125.22 137.74)" d="m1342.8-456.5c6.8263 17.174 11.556 28.679 4.1272 34.047s-18.09-2.946-31.03-14.607c-12.314-11.096-11.556-28.679-4.1273-34.047s24.908-0.79697 31.03 14.607z" filter="url(#filter2918)" opacity=".621" stroke-width="2.5235"/>
   <path d="m103.94 65.008c-0.94221 2.4127-1.5573 4.044-2.8319 3.884-1.2746-0.16003-1.5724-2.0313-1.7838-4.4635-0.20123-2.3144 1.5573-4.044 2.8319-3.884 1.2746 0.16003 2.6289 2.2995 1.7838 4.4635z" stroke-width=".35368"/>
   <g stroke-width="2.5235">
    <path transform="matrix(.14015 0 0 .14015 -125.22 137.74)" d="m1691.2-505.46c-9.0883 16.092-15.078 26.994-23.92 24.578-8.8416-2.4157-9.0578-15.934-8.0988-33.326 0.9126-16.551 15.078-26.994 23.92-24.578 8.8416 2.4157 16.25 18.893 8.0988 33.326z" filter="url(#filter2902)" opacity=".621"/>
    <path transform="matrix(.14015 0 0 .14015 -125.22 137.74)" d="m1747.2-483.05c-11.364 14.574-18.897 24.473-27.285 20.779-8.3883-3.6941-6.6071-17.096-3.0917-34.157 3.3453-16.235 18.897-24.473 27.285-20.779 8.3883 3.6941 13.284 21.085 3.0917 34.157z" filter="url(#filter2906)" opacity=".4388"/>
    <path transform="matrix(.14015 0 0 .14015 -125.22 137.74)" d="m1802.7-450.29c-13.517 12.603-22.514 21.193-30.216 16.224s-3.8328-17.923 2.3251-34.218c5.8599-15.506 22.514-21.193 30.216-16.224s9.7984 22.913-2.3251 34.218z" filter="url(#filter2910)" opacity=".621"/>
   </g>
   <path d="m56.904 78.406c1.2696 2.2576 2.142 3.7671 1.2106 4.6518-0.9314 0.8847-2.5678-0.07057-4.5835-1.448-1.9181-1.3107-2.142-3.7671-1.2106-4.6518 0.9314-0.8847 3.4447-0.57694 4.5835 1.448z" stroke-width=".35368"/>
   <g stroke-width="2.5235">
    <path transform="matrix(.14015 0 0 .14015 -125.22 137.74)" d="m1855-406.48c-15.43 10.171-25.735 17.139-32.5 10.954-6.7649-6.1844-0.7884-18.311 8.0021-33.35 8.365-14.311 25.735-17.139 32.5-10.954 6.7649 6.1844 5.8376 24.227-8.0021 33.35z" filter="url(#filter2914)" opacity=".36"/>
    <path transform="matrix(.14015 0 0 .14015 -125.22 137.74)" d="m1537-523.28c-2.412 18.323-3.8907 30.674-12.994 31.74-9.1036 1.0656-14.359-11.391-19.973-27.881-5.3422-15.692 3.8907-30.674 12.994-31.74 9.1036-1.0656 22.136 11.446 19.973 27.881z" filter="url(#filter2890)" opacity=".44208"/>
    <path transform="matrix(.14015 0 0 .14015 -125.22 137.74)" d="m1198.7 86.846c17.781-5.0397 29.708-8.572 34.291-0.63427 4.5828 7.9377-4.7752 17.695-17.695 29.379-12.294 11.118-29.708 8.572-34.291 0.63428-4.5829-7.9377 1.7468-24.859 17.695-29.379z" filter="url(#filter2934)" opacity=".5085"/>
   </g>
   <path d="m50.298 160.89c2.261-1.2636 3.7728-2.1319 4.655-1.1982 0.88222 0.93374-0.07741 2.5676-1.4602 4.5796-1.3159 1.9146-3.7728 2.1319-4.655 1.1982-0.88223-0.93376-0.56776-3.4462 1.4602-4.5796z" stroke-width=".35368"/>
   <path transform="matrix(.14015 0 0 .14015 -125.22 137.74)" d="m1286.2 199.72c14.95-10.865 24.926-18.296 31.966-12.427 7.0402 5.8691 1.6235 18.256-6.4713 33.68-7.703 14.678-24.926 18.296-31.966 12.427-7.0402-5.8691-6.9376-23.935 6.4713-33.68z" filter="url(#filter2930)" opacity=".621" stroke-width="2.5235"/>
   <path transform="matrix(.14015 0 0 .14015 -125.22 137.74)" d="m1328.9 233.38c13.372-12.756 22.272-21.448 30.03-16.567 7.7581 4.8808 4.0367 17.878-1.9351 34.242-5.6829 15.572-22.272 21.448-30.03 16.567-7.7581-4.8808-10.059-22.8 1.9352-34.242z" filter="url(#filter2926)" opacity=".43796" stroke-width="2.5235"/>
   <path d="m67.925 174.5c1.6061-2.032 2.6711-3.4124 3.8433-2.8868 1.1722 0.52552 0.91011 2.4021 0.40158 4.7899-0.48392 2.2722-2.6711 3.4124-3.8433 2.8868-1.1722-0.52552-1.8422-2.9673-0.40159-4.7899z" stroke-width=".35368"/>
   <path d="m39.864 143.4c2.5606-0.39038 4.2808-0.67334 4.7795 0.5105s-0.97299 2.3774-2.9736 3.7766c-1.9037 1.3315-4.2808 0.67334-4.7795-0.5105-0.4987-1.1838 0.67694-3.4264 2.9736-3.7766z" stroke-width=".35368"/>
   <path transform="matrix(.14015 0 0 .14015 -125.22 137.74)" d="m1161.5-14.971c18.48-0.17527 30.917-0.43914 33.245 8.4258 2.3287 8.8649-9.2701 15.811-24.812 23.677-14.79 7.4851-30.917 0.43914-33.245-8.4258-2.3288-8.8649 8.2368-23.52 24.812-23.677z" filter="url(#filter2938)" opacity=".62132" stroke-width="2.5235"/>
   <path d="m36.361 127.27c2.5653 0.35796 4.2947 0.5786 4.4341 1.8556 0.13944 1.277-1.612 2-3.9291 2.7688-2.205 0.73165-4.2947-0.5786-4.4341-1.8556-0.13944-1.277 1.6283-3.0899 3.9291-2.7688z" stroke-width=".35368"/>
   <g stroke-width="2.5235">
    <path transform="matrix(.14015 0 0 .14015 -125.22 137.74)" d="m1153.5-139.07c17.673 5.4042 29.611 8.9018 29.158 18.056-0.4522 9.1546-13.606 12.281-30.796 15.095-16.358 2.6781-29.611-8.9018-29.158-18.056 0.4521-9.1546 14.944-19.942 30.796-15.095z" filter="url(#filter2942)" opacity=".62132"/>
    <path transform="matrix(.13354 .042554 -.042554 .13354 -119.98 82.135)" d="m1231.5-172.97c17.673 5.4042 29.611 8.9018 29.158 18.056-0.4522 9.1546-13.606 12.281-30.796 15.095-16.358 2.6781-29.611-8.9018-29.158-18.056 0.4521-9.1546 14.944-19.942 30.796-15.095z" filter="url(#filter2942-3)" opacity=".62132"/>
    <path transform="matrix(.14015 0 0 .14015 -125.22 137.74)" d="m1428.5 283.26c9.4209-15.899 15.636-26.675 24.425-24.076 8.7896 2.599 8.7247 16.119 7.4044 33.488-1.2565 16.528-15.636 26.675-24.425 24.076-8.7896-2.599-15.854-19.227-7.4044-33.488z" filter="url(#filter2922)" opacity=".62132"/>
    <path transform="matrix(.14015 0 0 .14015 -125.22 137.74)" d="m1165.3-206.31c16.524 8.2775 27.71 13.718 25.737 22.669-1.9733 8.9508-15.464 9.8385-32.883 9.7449-16.576-0.089-27.71-13.718-25.737-22.669 1.9734-8.9508 18.062-17.169 32.883-9.7449z" filter="url(#filter2946)" opacity=".30958"/>
   </g>
   <g stroke-width=".35368">
    <path d="m46.212 155.61c2.393-0.99124 3.9957-1.6773 4.763-0.647 0.76728 1.0303-0.37639 2.541-1.9844 4.378-1.5302 1.748-3.9957 1.6773-4.763 0.647-0.76728-1.0303-0.16189-3.4889 1.9844-4.378z"/>
    <path d="m143.97 153.92c-1.8577-1.805-3.1222-3.0051-2.4799-4.1176 0.6423-1.1125 2.4824-0.66044 4.8059 0.0889 2.211 0.71307 3.1222 3.0051 2.4799 4.1176-0.64229 1.1125-3.1397 1.53-4.8059-0.0889z"/>
    <path d="m149.72 141.92c-2.2248-1.3263-3.7327-2.2014-3.3651-3.4322 0.36753-1.2309 2.2623-1.2168 4.6961-1.0252 2.316 0.18228 3.7327 2.2014 3.3652 3.4322-0.36753 1.2309-2.7006 2.2148-4.6961 1.0252z"/>
   </g>
   <g stroke-width="2.5235">
    <path transform="matrix(.14015 0 0 .14015 -125.22 137.74)" d="m1974.7-16.837c-16.884-7.5145-28.307-12.439-26.745-21.47 1.5627-9.0315 14.999-10.534 32.404-11.236 16.563-0.66776 28.307 12.439 26.745 21.47-1.5627 9.0315-17.26 17.976-32.404 11.236z" filter="url(#filter3132)" opacity=".32976"/>
    <path transform="matrix(.14015 0 0 .14015 -125.22 137.74)" d="m1982.5-70.598c-17.734-5.2026-29.71-8.564-29.362-17.723 0.3478-9.1591 13.465-12.435 30.622-15.445 16.327-2.8643 29.71 8.564 29.362 17.723-0.3478 9.1591-14.716 20.111-30.622 15.445z" filter="url(#filter3128)" opacity=".621"/>
    <path transform="matrix(.14015 0 0 .14015 -125.22 137.74)" d="m1982.9-127.66c-18.286-2.6753-30.615-4.3314-31.549-13.449-0.9345-9.1179 11.596-14.193 28.165-19.57 15.767-5.1161 30.615 4.3313 31.549 13.449 0.9346 9.1179-11.764 21.969-28.165 19.57z" filter="url(#filter3124)" opacity=".621"/>
    <path transform="matrix(.14015 0 0 .14015 -125.22 137.74)" d="m1890.9 156.68c-11.547-14.429-19.433-24.05-13.897-31.355s18.161-2.469 33.944 4.9011c15.019 7.0135 19.433 24.05 13.897 31.355-5.536 7.305-23.587 8.041-33.944-4.9012z" filter="url(#filter3108)" opacity=".621"/>
    <path transform="matrix(.14015 0 0 .14015 -125.22 137.74)" d="m1851.1 198.57c-9.3918-15.917-15.839-26.555-9.3257-33.004 6.5129-6.4492 18.328 0.12259 32.911 9.6495 13.877 9.0658 15.839 26.555 9.3257 33.004-6.5128 6.4492-24.487 4.6266-32.911-9.6495z" filter="url(#filter3112)" opacity=".48374"/>
   </g>
   <path d="m127.58 170.8c-0.97266-2.4006-1.6462-4.0086-0.61006-4.7678 1.0362-0.75927 2.538 0.39608 4.3624 2.0183 1.7361 1.5437 1.6463 4.0086 0.61005 4.7678-1.0362 0.75926-3.49 0.13482-4.3624-2.0183z" stroke-width=".35368"/>
   <path transform="matrix(.14015 0 0 .14015 -125.22 137.74)" d="m1747.6 267.49c-4.1564-18.008-7.0961-30.094 1.0581-34.28 8.1542-4.1857 17.438 5.6423 28.471 19.122 10.498 12.828 7.0961 30.094-1.0581 34.28-8.1541 4.1857-24.743-2.971-28.471-19.122z" filter="url(#filter3116)" opacity=".35699" stroke-width="2.5235"/>
   <path d="m151.71 112.26c-2.59-0.0293-4.3334-0.0285-4.6338-1.2775-0.30049-1.249 1.345-2.1885 3.5457-3.2454 2.0942-1.0057 4.3334 0.0285 4.6338 1.2775 0.30049 1.249-1.2227 3.2716-3.5457 3.2454z" stroke-width=".35368"/>
   <g stroke-width="2.5235">
    <path transform="matrix(.14015 0 0 .14015 -125.22 137.74)" d="m1683.5 290.93c-1.0933-18.449-1.9749-30.857 6.7634-33.623 8.7382-2.7664 16.252 8.4729 24.881 23.605 8.2108 14.4 1.9749 30.857-6.7633 33.623-8.7383 2.7664-23.9-7.058-24.881-23.605z" filter="url(#filter3120)" opacity=".621"/>
    <path transform="matrix(.14015 0 0 .14015 -125.22 137.74)" d="m1943.7 73.898c-14.662-11.25-24.619-18.706-20.99-27.123 3.629-8.4167 17.044-6.7396 34.132-3.3566 16.26 3.2193 24.619 18.706 20.99 27.123-3.629 8.4167-20.981 13.447-34.132 3.3566z" filter="url(#filter3136)" opacity=".44456"/>
    <path transform="matrix(.13354 .042554 -.042554 .13354 -107.65 87.946)" d="m1231.5-172.97c17.673 5.4042 29.611 8.9018 29.158 18.056-0.4522 9.1546-13.606 12.281-30.796 15.095-16.358 2.6781-29.611-8.9018-29.158-18.056 0.4521-9.1546 14.944-19.942 30.796-15.095z" filter="url(#filter2942-3)" opacity=".62132"/>
    <path transform="matrix(.1262 .060957 -.060957 .1262 -126.43 49.251)" d="m1360.1-337.75c17.673 5.4042 29.611 8.9018 29.158 18.056-0.4522 9.1546-13.606 12.281-30.796 15.095-16.358 2.6781-29.611-8.9018-29.158-18.056 0.4521-9.1546 14.944-19.942 30.796-15.095z" filter="url(#filter2942-5)" opacity=".62132"/>
    <path transform="matrix(.1262 .060957 -.060957 .1262 -113.37 57.108)" d="m1360.1-337.75c17.673 5.4042 29.611 8.9018 29.158 18.056-0.4522 9.1546-13.606 12.281-30.796 15.095-16.358 2.6781-29.611-8.9018-29.158-18.056 0.4521-9.1546 14.944-19.942 30.796-15.095z" filter="url(#filter2942-5)" opacity=".62132"/>
    <path transform="matrix(-.1262 .060957 .060957 .1262 313.29 49.074)" d="m1360.1-337.75c17.673 5.4042 29.611 8.9018 29.158 18.056-0.4522 9.1546-13.606 12.281-30.796 15.095-16.358 2.6781-29.611-8.9018-29.158-18.056 0.4521-9.1546 14.944-19.942 30.796-15.095z" filter="url(#filter2942-5)" opacity=".62132"/>
    <path transform="matrix(-.1262 .060957 .060957 .1262 302.07 56.197)" d="m1360.1-337.75c17.673 5.4042 29.611 8.9018 29.158 18.056-0.4522 9.1546-13.606 12.281-30.796 15.095-16.358 2.6781-29.611-8.9018-29.158-18.056 0.4521-9.1546 14.944-19.942 30.796-15.095z" filter="url(#filter2942-5)" opacity=".62132"/>
    <path transform="matrix(.1214 -.070035 .070035 .1214 -71.671 238.55)" d="m1714.8-55.77c17.673 5.4042 29.611 8.9018 29.158 18.056-0.4522 9.1546-13.606 12.281-30.796 15.095-16.358 2.6781-29.611-8.9018-29.158-18.056 0.4521-9.1546 14.944-19.942 30.796-15.095z" filter="url(#filter2942-6)" opacity=".62132"/>
    <path transform="matrix(-.0030831 -.14012 .14012 -.0030831 114.14 405.69)" d="m1866.9-194.07c17.673 5.4042 29.611 8.9018 29.158 18.056-0.4522 9.1546-13.606 12.281-30.796 15.095-16.358 2.6781-29.611-8.9018-29.158-18.056 0.4521-9.1546 14.944-19.942 30.796-15.095z" filter="url(#filter2942-1)" opacity=".62132"/>
    <path transform="matrix(.1214 -.070035 .070035 .1214 -85.24 245.53)" d="m1714.8-55.77c17.673 5.4042 29.611 8.9018 29.158 18.056-0.4522 9.1546-13.606 12.281-30.796 15.095-16.358 2.6781-29.611-8.9018-29.158-18.056 0.4521-9.1546 14.944-19.942 30.796-15.095z" filter="url(#filter2942-6)" opacity=".62132"/>
    <path transform="matrix(-.0030831 -.14012 .14012 -.0030831 138 422.12)" d="m1866.9-194.07c17.673 5.4042 29.611 8.9018 29.158 18.056-0.4522 9.1546-13.606 12.281-30.796 15.095-16.358 2.6781-29.611-8.9018-29.158-18.056 0.4521-9.1546 14.944-19.942 30.796-15.095z" filter="url(#filter2942-1)" opacity=".62132"/>
    <path transform="matrix(-.0030831 -.14012 .14012 -.0030831 113.24 419.78)" d="m1866.9-194.07c17.673 5.4042 29.611 8.9018 29.158 18.056-0.4522 9.1546-13.606 12.281-30.796 15.095-16.358 2.6781-29.611-8.9018-29.158-18.056 0.4521-9.1546 14.944-19.942 30.796-15.095z" filter="url(#filter2942-1)" opacity=".62132"/>
    <path transform="matrix(-.0030831 -.14012 .14012 -.0030831 137.22 407.29)" d="m1866.9-194.07c17.673 5.4042 29.611 8.9018 29.158 18.056-0.4522 9.1546-13.606 12.281-30.796 15.095-16.358 2.6781-29.611-8.9018-29.158-18.056 0.4521-9.1546 14.944-19.942 30.796-15.095z" filter="url(#filter2942-1)" opacity=".62132"/>
   </g>
  </g>
 </g>
 <g transform="matrix(2.4189 0 0 2.4189 215.2 -256.66)" fill-rule="evenodd" stroke="#e3ab6b" stroke-linecap="round" stroke-linejoin="round" stroke-width="1.0583">
  <path d="m117.83 118.21c-3.047 0-6.7122 2.4718-7.6552 5.4999-2.608 8.3747 1.1073 17.199-0.0523 23.508l-7.5157 37.682c-0.60773 3.047 1.356 5.4999 4.403 5.4999h51.647c3.047 0 5.9892-2.4529 6.5969-5.4999l7.5237-37.722c3.3242-8.6361 8.9043-15.053 9.1828-23.468 0.0994-3.0057-2.4143-5.4999-5.4613-5.4999-9.7782 0-19.768 1.0583-29.546 1.0583-9.7782 0-19.345-1.0583-29.124-1.0583z" fill="#e3ab6b"/>
  <path d="m115.71 116.09c-3.047 0-6.7122 2.4718-7.6552 5.4999-2.608 8.3747 1.1073 17.199-0.0523 23.508l-7.5157 37.682c-0.60773 3.047 1.356 5.4999 4.403 5.4999h51.647c3.047 0 5.9892-2.4529 6.5969-5.4999l7.5237-37.722c3.3242-8.6361 8.9043-15.053 9.1828-23.468 0.0994-3.0057-2.4143-5.4999-5.4613-5.4999-9.7782 0-19.768 1.0583-29.546 1.0583-9.7782 0-19.345-1.0583-29.124-1.0583z" fill="#f0d4ad"/>
 </g>
 <g transform="matrix(2.4189 0 0 2.4189 -17.576 -241.76)" fill-rule="evenodd" stroke="#e3ab6b" stroke-linecap="round" stroke-linejoin="round" stroke-width="1.0583">
  <path d="m117.83 118.21c-3.047 0-6.7122 2.4718-7.6552 5.4999-2.608 8.3747 1.1073 17.199-0.0523 23.508l-7.5157 37.682c-0.60773 3.047 1.356 5.4999 4.403 5.4999h51.647c3.047 0 5.9892-2.4529 6.5969-5.4999l7.5237-37.722c3.3242-8.6361 8.9043-15.053 9.1828-23.468 0.0994-3.0057-2.4143-5.4999-5.4613-5.4999-9.7782 0-19.768 1.0583-29.546 1.0583-9.7782 0-19.345-1.0583-29.124-1.0583z" fill="#e3ab6b"/>
  <path d="m115.71 116.09c-3.047 0-6.7122 2.4718-7.6552 5.4999-2.608 8.3747 1.1073 17.199-0.0523 23.508l-7.5157 37.682c-0.60773 3.047 1.356 5.4999 4.403 5.4999h51.647c3.047 0 5.9892-2.4529 6.5969-5.4999l7.5237-37.722c3.3242-8.6361 8.9043-15.053 9.1828-23.468 0.0994-3.0057-2.4143-5.4999-5.4613-5.4999-9.7782 0-19.768 1.0583-29.546 1.0583-9.7782 0-19.345-1.0583-29.124-1.0583z" fill="#f0d4ad"/>
 </g>
 <g transform="matrix(2.4189 0 0 2.4189 -27.994 -256.8)" fill-rule="evenodd" stroke="#e3ab6b" stroke-linecap="round" stroke-linejoin="round" stroke-width="1.0583">
  <path d="m117.83 118.21c-3.047 0-6.7122 2.4718-7.6552 5.4999-2.608 8.3747 1.1073 17.199-0.0523 23.508l-7.5157 37.682c-0.60773 3.047 1.356 5.4999 4.403 5.4999h51.647c3.047 0 5.9892-2.4529 6.5969-5.4999l7.5237-37.722c3.3242-8.6361 8.9043-15.053 9.1828-23.468 0.0994-3.0057-2.4143-5.4999-5.4613-5.4999-9.7782 0-19.768 1.0583-29.546 1.0583-9.7782 0-19.345-1.0583-29.124-1.0583z" fill="#e3ab6b"/>
  <path d="m115.71 116.09c-3.047 0-6.7122 2.4718-7.6552 5.4999-2.608 8.3747 1.1073 17.199-0.0523 23.508l-7.5157 37.682c-0.60773 3.047 1.356 5.4999 4.403 5.4999h51.647c3.047 0 5.9892-2.4529 6.5969-5.4999l7.5237-37.722c3.3242-8.6361 8.9043-15.053 9.1828-23.468 0.0994-3.0057-2.4143-5.4999-5.4613-5.4999-9.7782 0-19.768 1.0583-29.546 1.0583-9.7782 0-19.345-1.0583-29.124-1.0583z" fill="#f0d4ad"/>
 </g>
 <path d="m431.31 128.31h-17.463l2.651-14h17.463l1.6727-8.8333s24.561 15.368 24.473 15.833-30.469 15.833-30.469 15.833z" fill="none" stroke="#000" stroke-width="2"/>
 <path d="m197.17 108.62-0.77744 7.8926h-7.8945l-0.96308 9.7773h7.8945l-0.77744 7.8926h9.7773l0.77744-7.8926h7.8926l0.96308-9.7773h-7.8926l0.77744-7.8926z" fill="none" stroke="#070300" stroke-linecap="round" stroke-linejoin="round" stroke-width="2"/>
 <g transform="matrix(.94397 0 -.18763 .94397 23.029 6.9921)" fill-rule="evenodd" stroke-linecap="round" stroke-linejoin="round">
  <path d="m143.88 54.671a85.622 85.622 0 0 0-116.96 31.34 85.622 85.622 0 0 0 31.34 116.96 85.622 85.622 0 0 0 116.96-31.34 85.622 85.622 0 0 0-31.34-116.96zm-8.1832 14.174a69.256 69.256 0 0 1 19.51 17.117l-48.681 31.908 6.6159 11.459 52.135-26.023a69.256 69.256 0 0 1-4.2307 60.143 69.256 69.256 0 0 1-49.918 33.87l-3.3033-58.296-13.232-1.5e-4 -3.541 58.325a69.256 69.256 0 0 1-24.611-8.549 69.256 69.256 0 0 1-29.692-85.499l52.107 26.272 6.6159-11.459-48.691-32.196a69.256 69.256 0 0 1 88.916-17.072z" fill="#c43d1c" stroke-width=".56061"/>
  <circle transform="matrix(.12138 .070076 -.070076 .12138 -125.22 137.74)" cx="1304.2" cy="-876.88" r="494.15" fill="#ca1005" filter="url(#filter46382)" stroke-width="4"/>
  <path d="m137.34 48.552a85.622 85.622 0 0 0-116.96 31.34 85.622 85.622 0 0 0 31.34 116.96 85.622 85.622 0 0 0 116.96-31.34 85.622 85.622 0 0 0-31.34-116.96zm-8.1832 14.174a69.256 69.256 0 0 1 19.51 17.117l-48.681 31.908 6.6159 11.459 52.135-26.023a69.256 69.256 0 0 1-4.2307 60.143 69.256 69.256 0 0 1-49.918 33.87l-3.3033-58.296-13.232-1.5e-4 -3.541 58.325a69.256 69.256 0 0 1-24.611-8.549 69.256 69.256 0 0 1-29.692-85.499l52.107 26.272 6.6159-11.459-48.691-32.196a69.256 69.256 0 0 1 88.916-17.072z" fill="url(#radialGradient6425)" stroke-width=".56061"/>
  <path d="m118.48 81.234a47.884 47.884 0 0 0-55.076 5.2369l17.579 10.149c6.8332 3.9452 9.1585 12.622 5.2133 19.456l-2.4744 4.2858c-3.9452 6.8333-12.622 9.1581-19.456 5.213l-16.994-9.8114a47.884 47.884 0 0 0 23.324 48.409 47.884 47.884 0 0 0 8.1314 3.6826l1.4e-5 -20.371c0-7.8904 6.3521-14.243 14.242-14.243l4.9488 1.3e-4c7.8903 0 14.243 6.3521 14.243 14.242l-9e-5 19.675a47.884 47.884 0 0 0 23.846-20.514 47.884 47.884 0 0 0 5.5387-32.825l-17.642 10.185c-6.8333 3.9452-15.511 1.6202-19.456-5.213l-2.4744-4.286c-3.9452-6.8333-1.62-15.51 5.2133-19.456l17.039-9.8374a47.884 47.884 0 0 0-5.746-3.979z" fill="#f7b393" stroke-width=".52901"/>
  <circle transform="rotate(30)" cx="144.62" cy="58.997" r="14.174" fill="url(#radialGradient6427)" stroke-width=".56061"/>
  <g fill="#fdee9b" stroke="#fc9d53">
   <path transform="matrix(.14015 0 0 .14015 -125.22 137.74)" d="m1584.4-524.15c-4.5258 17.918-7.4303 30.014-16.596 30.014s-12.937-12.983-16.596-30.014c-3.4818-16.206 7.4303-30.014 16.596-30.014s20.655 13.942 16.596 30.014z" filter="url(#filter2898)" opacity=".42824" stroke-width="2.5235"/>
   <path transform="matrix(.14015 0 0 .14015 -125.22 137.74)" d="m1489.8-516.86c-0.2583 18.479-0.2861 30.918-9.2032 33.039-8.9171 2.1202-15.59-9.6384-23.089-25.361-7.1362-14.961 0.286-30.918 9.2031-33.039 8.9172-2.1202 23.32 8.7862 23.089 25.361z" filter="url(#filter2894)" opacity=".621" stroke-width="2.5235"/>
   <path d="m77.01 66.998c0.27111 2.5759 0.47392 4.3075-0.73178 4.7507-1.2057 0.44322-2.3296-1.0823-3.6345-3.1456-1.2417-1.9635-0.47392-4.3075 0.73178-4.7507 1.2057-0.44322 3.3913 0.83523 3.6345 3.1456z" stroke-width=".35368"/>
   <path transform="matrix(.14015 0 0 .14015 -125.22 137.74)" d="m1392.4-484.64c4.3612 17.959 7.4384 30.012-0.6676 34.29-8.1059 4.2783-17.501-5.4433-28.687-18.797-10.644-12.707-7.4384-30.012 0.6676-34.29 8.1059-4.2783 24.775 2.6889 28.687 18.797z" filter="url(#filter2886)" opacity=".3753" stroke-width="2.5235"/>
   <path transform="matrix(.14015 0 0 .14015 -125.22 137.74)" d="m1342.8-456.5c6.8263 17.174 11.556 28.679 4.1272 34.047s-18.09-2.946-31.03-14.607c-12.314-11.096-11.556-28.679-4.1273-34.047s24.908-0.79697 31.03 14.607z" filter="url(#filter2918)" opacity=".621" stroke-width="2.5235"/>
   <path d="m103.94 65.008c-0.94221 2.4127-1.5573 4.044-2.8319 3.884-1.2746-0.16003-1.5724-2.0313-1.7838-4.4635-0.20123-2.3144 1.5573-4.044 2.8319-3.884 1.2746 0.16003 2.6289 2.2995 1.7838 4.4635z" stroke-width=".35368"/>
   <g stroke-width="2.5235">
    <path transform="matrix(.14015 0 0 .14015 -125.22 137.74)" d="m1691.2-505.46c-9.0883 16.092-15.078 26.994-23.92 24.578-8.8416-2.4157-9.0578-15.934-8.0988-33.326 0.9126-16.551 15.078-26.994 23.92-24.578 8.8416 2.4157 16.25 18.893 8.0988 33.326z" filter="url(#filter2902)" opacity=".621"/>
    <path transform="matrix(.14015 0 0 .14015 -125.22 137.74)" d="m1747.2-483.05c-11.364 14.574-18.897 24.473-27.285 20.779-8.3883-3.6941-6.6071-17.096-3.0917-34.157 3.3453-16.235 18.897-24.473 27.285-20.779 8.3883 3.6941 13.284 21.085 3.0917 34.157z" filter="url(#filter2906)" opacity=".4388"/>
    <path transform="matrix(.14015 0 0 .14015 -125.22 137.74)" d="m1802.7-450.29c-13.517 12.603-22.514 21.193-30.216 16.224s-3.8328-17.923 2.3251-34.218c5.8599-15.506 22.514-21.193 30.216-16.224s9.7984 22.913-2.3251 34.218z" filter="url(#filter2910)" opacity=".621"/>
   </g>
   <path d="m56.904 78.406c1.2696 2.2576 2.142 3.7671 1.2106 4.6518-0.9314 0.8847-2.5678-0.07057-4.5835-1.448-1.9181-1.3107-2.142-3.7671-1.2106-4.6518 0.9314-0.8847 3.4447-0.57694 4.5835 1.448z" stroke-width=".35368"/>
   <g stroke-width="2.5235">
    <path transform="matrix(.14015 0 0 .14015 -125.22 137.74)" d="m1855-406.48c-15.43 10.171-25.735 17.139-32.5 10.954-6.7649-6.1844-0.7884-18.311 8.0021-33.35 8.365-14.311 25.735-17.139 32.5-10.954 6.7649 6.1844 5.8376 24.227-8.0021 33.35z" filter="url(#filter2914)" opacity=".36"/>
    <path transform="matrix(.14015 0 0 .14015 -125.22 137.74)" d="m1537-523.28c-2.412 18.323-3.8907 30.674-12.994 31.74-9.1036 1.0656-14.359-11.391-19.973-27.881-5.3422-15.692 3.8907-30.674 12.994-31.74 9.1036-1.0656 22.136 11.446 19.973 27.881z" filter="url(#filter2890)" opacity=".44208"/>
    <path transform="matrix(.14015 0 0 .14015 -125.22 137.74)" d="m1198.7 86.846c17.781-5.0397 29.708-8.572 34.291-0.63427 4.5828 7.9377-4.7752 17.695-17.695 29.379-12.294 11.118-29.708 8.572-34.291 0.63428-4.5829-7.9377 1.7468-24.859 17.695-29.379z" filter="url(#filter2934)" opacity=".5085"/>
   </g>
   <path d="m50.298 160.89c2.261-1.2636 3.7728-2.1319 4.655-1.1982 0.88222 0.93374-0.07741 2.5676-1.4602 4.5796-1.3159 1.9146-3.7728 2.1319-4.655 1.1982-0.88223-0.93376-0.56776-3.4462 1.4602-4.5796z" stroke-width=".35368"/>
   <path transform="matrix(.14015 0 0 .14015 -125.22 137.74)" d="m1286.2 199.72c14.95-10.865 24.926-18.296 31.966-12.427 7.0402 5.8691 1.6235 18.256-6.4713 33.68-7.703 14.678-24.926 18.296-31.966 12.427-7.0402-5.8691-6.9376-23.935 6.4713-33.68z" filter="url(#filter2930)" opacity=".621" stroke-width="2.5235"/>
   <path transform="matrix(.14015 0 0 .14015 -125.22 137.74)" d="m1328.9 233.38c13.372-12.756 22.272-21.448 30.03-16.567 7.7581 4.8808 4.0367 17.878-1.9351 34.242-5.6829 15.572-22.272 21.448-30.03 16.567-7.7581-4.8808-10.059-22.8 1.9352-34.242z" filter="url(#filter2926)" opacity=".43796" stroke-width="2.5235"/>
   <path d="m67.925 174.5c1.6061-2.032 2.6711-3.4124 3.8433-2.8868 1.1722 0.52552 0.91011 2.4021 0.40158 4.7899-0.48392 2.2722-2.6711 3.4124-3.8433 2.8868-1.1722-0.52552-1.8422-2.9673-0.40159-4.7899z" stroke-width=".35368"/>
   <path d="m39.864 143.4c2.5606-0.39038 4.2808-0.67334 4.7795 0.5105s-0.97299 2.3774-2.9736 3.7766c-1.9037 1.3315-4.2808 0.67334-4.7795-0.5105-0.4987-1.1838 0.67694-3.4264 2.9736-3.7766z" stroke-width=".35368"/>
   <path transform="matrix(.14015 0 0 .14015 -125.22 137.74)" d="m1161.5-14.971c18.48-0.17527 30.917-0.43914 33.245 8.4258 2.3287 8.8649-9.2701 15.811-24.812 23.677-14.79 7.4851-30.917 0.43914-33.245-8.4258-2.3288-8.8649 8.2368-23.52 24.812-23.677z" filter="url(#filter2938)" opacity=".62132" stroke-width="2.5235"/>
   <path d="m36.361 127.27c2.5653 0.35796 4.2947 0.5786 4.4341 1.8556 0.13944 1.277-1.612 2-3.9291 2.7688-2.205 0.73165-4.2947-0.5786-4.4341-1.8556-0.13944-1.277 1.6283-3.0899 3.9291-2.7688z" stroke-width=".35368"/>
   <g stroke-width="2.5235">
    <path transform="matrix(.14015 0 0 .14015 -125.22 137.74)" d="m1153.5-139.07c17.673 5.4042 29.611 8.9018 29.158 18.056-0.4522 9.1546-13.606 12.281-30.796 15.095-16.358 2.6781-29.611-8.9018-29.158-18.056 0.4521-9.1546 14.944-19.942 30.796-15.095z" filter="url(#filter2942)" opacity=".62132"/>
    <path transform="matrix(.13354 .042554 -.042554 .13354 -119.98 82.135)" d="m1231.5-172.97c17.673 5.4042 29.611 8.9018 29.158 18.056-0.4522 9.1546-13.606 12.281-30.796 15.095-16.358 2.6781-29.611-8.9018-29.158-18.056 0.4521-9.1546 14.944-19.942 30.796-15.095z" filter="url(#filter2942-3)" opacity=".62132"/>
    <path transform="matrix(.14015 0 0 .14015 -125.22 137.74)" d="m1428.5 283.26c9.4209-15.899 15.636-26.675 24.425-24.076 8.7896 2.599 8.7247 16.119 7.4044 33.488-1.2565 16.528-15.636 26.675-24.425 24.076-8.7896-2.599-15.854-19.227-7.4044-33.488z" filter="url(#filter2922)" opacity=".62132"/>
    <path transform="matrix(.14015 0 0 .14015 -125.22 137.74)" d="m1165.3-206.31c16.524 8.2775 27.71 13.718 25.737 22.669-1.9733 8.9508-15.464 9.8385-32.883 9.7449-16.576-0.089-27.71-13.718-25.737-22.669 1.9734-8.9508 18.062-17.169 32.883-9.7449z" filter="url(#filter2946)" opacity=".30958"/>
   </g>
   <g stroke-width=".35368">
    <path d="m46.212 155.61c2.393-0.99124 3.9957-1.6773 4.763-0.647 0.76728 1.0303-0.37639 2.541-1.9844 4.378-1.5302 1.748-3.9957 1.6773-4.763 0.647-0.76728-1.0303-0.16189-3.4889 1.9844-4.378z"/>
    <path d="m143.97 153.92c-1.8577-1.805-3.1222-3.0051-2.4799-4.1176 0.6423-1.1125 2.4824-0.66044 4.8059 0.0889 2.211 0.71307 3.1222 3.0051 2.4799 4.1176-0.64229 1.1125-3.1397 1.53-4.8059-0.0889z"/>
    <path d="m149.72 141.92c-2.2248-1.3263-3.7327-2.2014-3.3651-3.4322 0.36753-1.2309 2.2623-1.2168 4.6961-1.0252 2.316 0.18228 3.7327 2.2014 3.3652 3.4322-0.36753 1.2309-2.7006 2.2148-4.6961 1.0252z"/>
   </g>
   <g stroke-width="2.5235">
    <path transform="matrix(.14015 0 0 .14015 -125.22 137.74)" d="m1974.7-16.837c-16.884-7.5145-28.307-12.439-26.745-21.47 1.5627-9.0315 14.999-10.534 32.404-11.236 16.563-0.66776 28.307 12.439 26.745 21.47-1.5627 9.0315-17.26 17.976-32.404 11.236z" filter="url(#filter3132)" opacity=".32976"/>
    <path transform="matrix(.14015 0 0 .14015 -125.22 137.74)" d="m1982.5-70.598c-17.734-5.2026-29.71-8.564-29.362-17.723 0.3478-9.1591 13.465-12.435 30.622-15.445 16.327-2.8643 29.71 8.564 29.362 17.723-0.3478 9.1591-14.716 20.111-30.622 15.445z" filter="url(#filter3128)" opacity=".621"/>
    <path transform="matrix(.14015 0 0 .14015 -125.22 137.74)" d="m1982.9-127.66c-18.286-2.6753-30.615-4.3314-31.549-13.449-0.9345-9.1179 11.596-14.193 28.165-19.57 15.767-5.1161 30.615 4.3313 31.549 13.449 0.9346 9.1179-11.764 21.969-28.165 19.57z" filter="url(#filter3124)" opacity=".621"/>
    <path transform="matrix(.14015 0 0 .14015 -125.22 137.74)" d="m1890.9 156.68c-11.547-14.429-19.433-24.05-13.897-31.355s18.161-2.469 33.944 4.9011c15.019 7.0135 19.433 24.05 13.897 31.355-5.536 7.305-23.587 8.041-33.944-4.9012z" filter="url(#filter3108)" opacity=".621"/>
    <path transform="matrix(.14015 0 0 .14015 -125.22 137.74)" d="m1851.1 198.57c-9.3918-15.917-15.839-26.555-9.3257-33.004 6.5129-6.4492 18.328 0.12259 32.911 9.6495 13.877 9.0658 15.839 26.555 9.3257 33.004-6.5128 6.4492-24.487 4.6266-32.911-9.6495z" filter="url(#filter3112)" opacity=".48374"/>
   </g>
   <path d="m127.58 170.8c-0.97266-2.4006-1.6462-4.0086-0.61006-4.7678 1.0362-0.75927 2.538 0.39608 4.3624 2.0183 1.7361 1.5437 1.6463 4.0086 0.61005 4.7678-1.0362 0.75926-3.49 0.13482-4.3624-2.0183z" stroke-width=".35368"/>
   <path transform="matrix(.14015 0 0 .14015 -125.22 137.74)" d="m1747.6 267.49c-4.1564-18.008-7.0961-30.094 1.0581-34.28 8.1542-4.1857 17.438 5.6423 28.471 19.122 10.498 12.828 7.0961 30.094-1.0581 34.28-8.1541 4.1857-24.743-2.971-28.471-19.122z" filter="url(#filter3116)" opacity=".35699" stroke-width="2.5235"/>
   <path d="m151.71 112.26c-2.59-0.0293-4.3334-0.0285-4.6338-1.2775-0.30049-1.249 1.345-2.1885 3.5457-3.2454 2.0942-1.0057 4.3334 0.0285 4.6338 1.2775 0.30049 1.249-1.2227 3.2716-3.5457 3.2454z" stroke-width=".35368"/>
   <g stroke-width="2.5235">
    <path transform="matrix(.14015 0 0 .14015 -125.22 137.74)" d="m1683.5 290.93c-1.0933-18.449-1.9749-30.857 6.7634-33.623 8.7382-2.7664 16.252 8.4729 24.881 23.605 8.2108 14.4 1.9749 30.857-6.7633 33.623-8.7383 2.7664-23.9-7.058-24.881-23.605z" filter="url(#filter3120)" opacity=".621"/>
    <path transform="matrix(.14015 0 0 .14015 -125.22 137.74)" d="m1943.7 73.898c-14.662-11.25-24.619-18.706-20.99-27.123 3.629-8.4167 17.044-6.7396 34.132-3.3566 16.26 3.2193 24.619 18.706 20.99 27.123-3.629 8.4167-20.981 13.447-34.132 3.3566z" filter="url(#filter3136)" opacity=".44456"/>
    <path transform="matrix(.13354 .042554 -.042554 .13354 -107.65 87.946)" d="m1231.5-172.97c17.673 5.4042 29.611 8.9018 29.158 18.056-0.4522 9.1546-13.606 12.281-30.796 15.095-16.358 2.6781-29.611-8.9018-29.158-18.056 0.4521-9.1546 14.944-19.942 30.796-15.095z" filter="url(#filter2942-3)" opacity=".78717"/>
    <path transform="matrix(.1262 .060957 -.060957 .1262 -126.43 49.251)" d="m1360.1-337.75c17.673 5.4042 29.611 8.9018 29.158 18.056-0.4522 9.1546-13.606 12.281-30.796 15.095-16.358 2.6781-29.611-8.9018-29.158-18.056 0.4521-9.1546 14.944-19.942 30.796-15.095z" filter="url(#filter2942-5)" opacity=".44659"/>
    <path transform="matrix(.1262 .060957 -.060957 .1262 -113.37 57.108)" d="m1360.1-337.75c17.673 5.4042 29.611 8.9018 29.158 18.056-0.4522 9.1546-13.606 12.281-30.796 15.095-16.358 2.6781-29.611-8.9018-29.158-18.056 0.4521-9.1546 14.944-19.942 30.796-15.095z" filter="url(#filter2942-5)" opacity=".62132"/>
    <path transform="matrix(-.1262 .060957 .060957 .1262 313.29 49.074)" d="m1360.1-337.75c17.673 5.4042 29.611 8.9018 29.158 18.056-0.4522 9.1546-13.606 12.281-30.796 15.095-16.358 2.6781-29.611-8.9018-29.158-18.056 0.4521-9.1546 14.944-19.942 30.796-15.095z" filter="url(#filter2942-5)" opacity=".62132"/>
    <path transform="matrix(-.1262 .060957 .060957 .1262 302.07 56.197)" d="m1360.1-337.75c17.673 5.4042 29.611 8.9018 29.158 18.056-0.4522 9.1546-13.606 12.281-30.796 15.095-16.358 2.6781-29.611-8.9018-29.158-18.056 0.4521-9.1546 14.944-19.942 30.796-15.095z" filter="url(#filter2942-5)" opacity=".46424"/>
    <path transform="matrix(.1214 -.070035 .070035 .1214 -71.671 238.55)" d="m1714.8-55.77c17.673 5.4042 29.611 8.9018 29.158 18.056-0.4522 9.1546-13.606 12.281-30.796 15.095-16.358 2.6781-29.611-8.9018-29.158-18.056 0.4521-9.1546 14.944-19.942 30.796-15.095z" filter="url(#filter2942-6)" opacity=".2009"/>
    <path transform="matrix(-.0030831 -.14012 .14012 -.0030831 114.14 405.69)" d="m1866.9-194.07c17.673 5.4042 29.611 8.9018 29.158 18.056-0.4522 9.1546-13.606 12.281-30.796 15.095-16.358 2.6781-29.611-8.9018-29.158-18.056 0.4521-9.1546 14.944-19.942 30.796-15.095z" filter="url(#filter2942-1)" opacity=".50942"/>
    <path transform="matrix(.1214 -.070035 .070035 .1214 -85.24 245.53)" d="m1714.8-55.77c17.673 5.4042 29.611 8.9018 29.158 18.056-0.4522 9.1546-13.606 12.281-30.796 15.095-16.358 2.6781-29.611-8.9018-29.158-18.056 0.4521-9.1546 14.944-19.942 30.796-15.095z" filter="url(#filter2942-6)" opacity=".37313"/>
    <path transform="matrix(-.0030831 -.14012 .14012 -.0030831 138 422.12)" d="m1866.9-194.07c17.673 5.4042 29.611 8.9018 29.158 18.056-0.4522 9.1546-13.606 12.281-30.796 15.095-16.358 2.6781-29.611-8.9018-29.158-18.056 0.4521-9.1546 14.944-19.942 30.796-15.095z" filter="url(#filter2942-1)" opacity=".53573"/>
    <path transform="matrix(-.0030831 -.14012 .14012 -.0030831 113.24 419.78)" d="m1866.9-194.07c17.673 5.4042 29.611 8.9018 29.158 18.056-0.4522 9.1546-13.606 12.281-30.796 15.095-16.358 2.6781-29.611-8.9018-29.158-18.056 0.4521-9.1546 14.944-19.942 30.796-15.095z" filter="url(#filter2942-1)" opacity=".35178"/>
    <path transform="matrix(-.0030831 -.14012 .14012 -.0030831 137.22 407.29)" d="m1866.9-194.07c17.673 5.4042 29.611 8.9018 29.158 18.056-0.4522 9.1546-13.606 12.281-30.796 15.095-16.358 2.6781-29.611-8.9018-29.158-18.056 0.4521-9.1546 14.944-19.942 30.796-15.095z" filter="url(#filter2942-1)" opacity=".69047"/>
   </g>
  </g>
 </g>
 <g transform="translate(317.85 119.74)" fill="#808080" stroke="#000">
  <g>
   <path d="m4.5 4.5 7.5 7.5h-4l3 7-1 0.5-3-7-2.5 2.5z" stroke="#fff" stroke-width="3px"/>
   <path d="m4.5 4.5 7.5 7.5h-4l3 7-1 0.5-3-7-2.5 2.5z" fill="#000" stroke-width="1px"/>
   <path d="m22.5 28-5.5-5.5 5.5-5.5 5.5 5.5z" fill="#fff" stroke="#fff" stroke-width="3px"/>
   <path d="m26.5 22.5v1.5l1.5-1.5-1.5-1.5v1.5h-8v1.5l-1.5-1.5 1.5-1.5v1.5m4-4h1.5l-1.5-1.5-1.5 1.5h1.5v8h1.5l-1.5 1.5-1.5-1.5h1.5" fill="#000" stroke="#000" stroke-width="1px"/>
  </g>
 </g>
</svg>
