<?xml version="1.0" encoding="UTF-8"?>
<!-- Created with Inkscape (http://www.inkscape.org/) -->
<svg width="672" height="220" version="1.1" viewBox="0 0 672 220" xmlns="http://www.w3.org/2000/svg">
 <g transform="translate(0,-40)">
  <g fill="#f60" fill-opacity=".99216">
   <circle cx="637" cy="89" r="30"/>
   <circle cx="415" cy="71" r="12"/>
   <circle cx="179" cy="67" r="8"/>
  </g>
  <g fill="none" stroke="#000" stroke-width="2">
   <rect x="6" y="60" width="180" height="180" rx="8" ry="8"/>
   <rect x="246" y="60" width="180" height="180" rx="12" ry="12"/>
   <rect x="486" y="60" width="180" height="180" rx="30" ry="30"/>
  </g>
  <g font-family="Lato" font-size="21.333px">
   <text x="71.168022" y="205.05382" style="line-height:1.25" xml:space="preserve"><tspan x="71.168022" y="205.05382">Ry=8</tspan></text>
   <text x="305.05069" y="205.05382" style="line-height:1.25" xml:space="preserve"><tspan x="305.05069" y="205.05382">Ry=12</tspan></text>
   <text x="544.784" y="205.05382" style="line-height:1.25" xml:space="preserve"><tspan x="544.784" y="205.05382">Ry=30</tspan></text>
  </g>
 </g>
</svg>
