<?xml version="1.0" encoding="UTF-8" standalone="no"?>
<svg xmlns:rdf="http://www.w3.org/1999/02/22-rdf-syntax-ns#" xmlns="http://www.w3.org/2000/svg" version="1.1" xmlns:cc="http://creativecommons.org/ns#" xmlns:xlink="http://www.w3.org/1999/xlink" viewBox="0 0 24 24" xmlns:dc="http://purl.org/dc/elements/1.1/">
<metadata>
<rdf:RDF>
<cc:Work rdf:about="">
<dc:format>image/svg+xml</dc:format>
<dc:type rdf:resource="http://purl.org/dc/dcmitype/StillImage"/>
</cc:Work>
</rdf:RDF>
</metadata>
<defs>
<linearGradient id="b" y2="304.5938" xlink:href="#a" gradientUnits="userSpaceOnUse" x2="454.2664" y1="293.7904" x1="448.7902"/>
<linearGradient id="f" y2="304.7992" gradientUnits="userSpaceOnUse" x2="496.6998" gradientTransform="translate(-474.994,-196)" y1="311.0814" x1="503.4623">
<stop stop-color="#db5d00" offset="0"/>
<stop stop-color="#ffd749" offset=".35076979"/>
<stop stop-color="#fff593" offset=".59668732"/>
<stop stop-color="#fff7c2" offset=".78382427"/>
<stop stop-color="#fff" offset="1"/>
</linearGradient>
<linearGradient id="a">
<stop stop-color="#5a5a5a" offset="0"/>
<stop offset="1"/>
</linearGradient>
<linearGradient id="d" y2="301.2458" xlink:href="#a" gradientUnits="userSpaceOnUse" x2="503.2033" gradientTransform="translate(-474.994,-196)" y1="296.2422" x1="494.7954"/>
<linearGradient id="e" y2="298.3802" gradientUnits="userSpaceOnUse" x2="502.1328" gradientTransform="translate(-474.994,-196)" y1="299.7858" x1="505.6819">
<stop stop-color="#376796" offset="0"/>
<stop stop-color="#b0dde2" offset="1"/>
</linearGradient>
<linearGradient id="c" y2="300.8249" gradientUnits="userSpaceOnUse" x2="500.2523" gradientTransform="translate(-474.994,-196)" y1="302.0055" x1="503.9067">
<stop stop-color="#c80000" offset="0"/>
<stop stop-color="#bf0000" stop-opacity="0" offset="1"/>
</linearGradient>
</defs>
<g transform="translate(-10,-99)">
<rect style="color:#000000" height="24" width="24" y="99" x="10" fill="none"/>
<path d="m450 295v0.5c8 2.1875-2.1665 15.6417 4.5 21 4.1531 3.3381 10.6496 2.8504 13.5 0 1-1 3-2 5.7187-0.9375v-0.2188c-1.7187-2.8437-4.7187-2.3437-6.2187-0.3437-1.8974 2.5298-7.5 5.5-10.5 1-4-6 11.5-21-7-21z" transform="translate(-440,-196)" stroke-width="1pt" fill="url(#b)"/>
<path stroke-linejoin="round" d="m20.50599 109.5v10h2c2-3 4-5 7-7v-6l-6-1-3 4z" fill-rule="evenodd" stroke="#000" stroke-linecap="round" stroke-width="1px" fill="url(#f)"/>
<path fill-rule="evenodd" d="m22 117.8669 2.00599-5.8669h1v-2h-2v2l-1.33362 5.8646 0.32763 0.002z"/>
<path stroke-linejoin="round" style="color:#000000" d="m25.29308 99.5-1.78709 6 7.06221 1.7811c0.70614-0.3233 1.01874-1.3214 0.93779-2.3194l1.99401-3.3433" fill-rule="evenodd" stroke="url(#d)" stroke-linecap="round" stroke-width="1px" fill="url(#e)"/>
<path d="m31.33134 104.9438-5-1" stroke="#000" stroke-linecap="round" stroke-width="1px" fill="none"/>
<path fill-rule="evenodd" fill="url(#c)" d="m30.48686 106.7926c0.48725-0.2332 0.63717-0.8036 0.61843-1.3741l-5.17231-1.0434-0.67465 1.0529 5.22853 1.3646z"/>
<path d="m24.92101 104.2064 1.29309-4.21652" stroke="#fff" stroke-linecap="round" stroke-width="1px" fill="none"/>
<path d="m33.45251 103.4948-0.96448 1.5471c0.04303 1.3375-0.47615 2.8999-1.89485 3.0005l0.0083 4.9298c-3.08937 1.587-5.39164 4.186-7.30037 6.9536" stroke-opacity=".2449568" stroke="#000" stroke-linecap="round" stroke-width="1.0000001" fill="none"/>
<path fill-rule="evenodd" fill="#fff" d="m21.03975 117-0.03975-7.275 2.66352-3.5381 3.8959 0.9541-0.67582 1.1926-2.54426-0.1193-1.9082 1.8287-1.39139 6.957z"/>
</g>
</svg>
