<?xml version="1.0" encoding="UTF-8" standalone="no"?>
<svg xmlns:rdf="http://www.w3.org/1999/02/22-rdf-syntax-ns#" xmlns="http://www.w3.org/2000/svg" version="1.1" xmlns:cc="http://creativecommons.org/ns#" xmlns:xlink="http://www.w3.org/1999/xlink" viewBox="0 0 15.997193 16.010037" xmlns:dc="http://purl.org/dc/elements/1.1/">
<metadata>
<rdf:RDF>
<cc:Work rdf:about="">
<dc:format>image/svg+xml</dc:format>
<dc:type rdf:resource="http://purl.org/dc/dcmitype/StillImage"/>
</cc:Work>
</rdf:RDF>
</metadata>
<defs>
<linearGradient id="b" y2="218.1995" xlink:href="#a" gradientUnits="userSpaceOnUse" x2="17.85282" gradientTransform="matrix(1.002867,0,0,1.594894,476.8719,-260.6659)" y1="214.6697" x1="16.46609"/>
<linearGradient id="c" y2="214.445" xlink:href="#a" gradientUnits="userSpaceOnUse" x2="16.37369" gradientTransform="matrix(1.332493,0,0,2.661873,470.7912,-492.2235)" y1="219.0054" x1="21.88428"/>
<linearGradient id="e" y2="78.52254" gradientUnits="userSpaceOnUse" x2="493.3302" y1="77.8489" x1="491.4307">
<stop stop-color="#d7d7d7" offset="0"/>
<stop offset="1"/>
</linearGradient>
<linearGradient id="d" y2="211.8799" gradientUnits="userSpaceOnUse" x2="15.65274" gradientTransform="matrix(1.249566,0,0,1.420757,477.3232,-211.4881)" y1="205.4478" x1="11.87961">
<stop stop-color="#5a5a5a" offset="0"/>
<stop offset="1"/>
</linearGradient>
<linearGradient id="f" y2="85.67345" gradientUnits="userSpaceOnUse" x2="495.948" y1="74.94392" x1="482.6295">
<stop stop-color="#f3ff49" offset="0"/>
<stop stop-color="#ffa01e" offset="1"/>
</linearGradient>
<linearGradient id="a">
<stop stop-color="#fff" offset="0"/>
<stop stop-color="#98b6d3" offset="1"/>
</linearGradient>
</defs>
<g transform="translate(-484.9517,-74.935628)">
<g transform="translate(-.0483 -.054332)">
<rect stroke-linejoin="round" style="color:#000000" fill-rule="evenodd" rx=".8838835" ry=".8838835" height="13.99545" width="12" stroke="#000" stroke-linecap="square" y="76.50455" x="485.5" fill="url(#f)"/>
<path d="m486.4517 89.43563v-12h10" stroke="#e6bc00" stroke-linecap="square" stroke-width="1px" fill="none"/>
<path style="color:#000000" d="m495 79c0 1.10678-1.6161 0.5-3 0.5s-3 0.60678-3-0.5 1.6131-3.51004 2.997-3.51004c1.3838 0 3.003 2.40326 3.003 3.51004z" fill-rule="evenodd" stroke="#000" stroke-linecap="square" stroke-width=".9999994" fill="url(#e)"/>
<path d="m494.0715 77.5h-2.1429" stroke="#000" stroke-linecap="round" stroke-width="1.0000001px" fill="none"/>
</g>
<rect stroke-linejoin="round" style="color:#000000" height="9.944057" width="9.994883" stroke="url(#d)" stroke-miterlimit="0" y="80.49155" x="490.454" stroke-width=".9999999" fill="none"/>
<rect stroke-linejoin="round" style="color:#000000" fill-rule="evenodd" height="7.995686" width="7.995919" stroke="url(#b)" stroke-linecap="round" stroke-miterlimit="0" y="81.43563" x="491.4559" stroke-width="1.0000005" fill="url(#c)"/>
</g>
</svg>
