<?xml version="1.0" encoding="UTF-8" standalone="no"?>
<svg xmlns:rdf="http://www.w3.org/1999/02/22-rdf-syntax-ns#" xmlns="http://www.w3.org/2000/svg" version="1.1" xmlns:cc="http://creativecommons.org/ns#" xmlns:xlink="http://www.w3.org/1999/xlink" viewBox="0 0 15.010778 14.757766" xmlns:dc="http://purl.org/dc/elements/1.1/">
<metadata>
<rdf:RDF>
<cc:Work rdf:about="">
<dc:format>image/svg+xml</dc:format>
<dc:type rdf:resource="http://purl.org/dc/dcmitype/StillImage"/>
<dc:title/>
</cc:Work>
</rdf:RDF>
</metadata>
<defs>
<linearGradient id="f" y2="76" xlink:href="#b" gradientUnits="userSpaceOnUse" x2="0" y1="128"/>
<linearGradient id="d" y2="60" xlink:href="#b" gradientUnits="userSpaceOnUse" x2="58" y1="35" x1="33"/>
<linearGradient id="e" y2="40" xlink:href="#b" gradientUnits="userSpaceOnUse" x2="60" y1="20" x1="80"/>
<linearGradient id="a" y2="64" xlink:href="#g" gradientUnits="userSpaceOnUse" x2="0" y1="128"/>
<linearGradient id="g" gradientUnits="userSpaceOnUse">
<stop offset="0"/>
<stop stop-opacity="0" offset="1"/>
</linearGradient>
<linearGradient id="b" gradientUnits="userSpaceOnUse">
<stop stop-color="#fff" offset="0"/>
<stop stop-color="#fff" stop-opacity="0" offset="1"/>
</linearGradient>
<linearGradient id="c" y2="50" xlink:href="#b" gradientUnits="userSpaceOnUse" x2="90" y1="20" x1="60"/>
</defs>
<path style="enable-background:new" d="m6.1890188 0.57075028-5.4781885 5.6093978c-2.0742656 2.0736177 1.3429541 1.9008162 2.5795354 2.6850687 0.5717528 0.3721872-1.8349272 0.8507129-1.3429542 1.3425352 0.4786766 0.491818 2.8853571 0.94376 3.3640337 1.422287 0.4786766 0.49182-0.9706502 1.010224-0.4919736 1.502042 0.4653802 0.49182 1.5822926 0.02658 1.7817411 1.143149 0.1462621 0.824129 2.0476727 0.412064 2.8986536-0.292434 0.5318627-0.451942-0.917464-0.451942-0.4387875-0.943761 1.1966912-1.20961 2.2604172-0.544989 2.6992052-1.661552 0.239338-0.598158-1.8083345-1.023516-1.263175-1.4089963 1.303066-0.917177 6.08983-1.3824106 3.8826-3.5889518l-5.6776382-5.8087846c-0.7047186-0.66462173-1.8615208-0.66462173-2.513053 0zm6.2892802 10.806733c0 0.279141 2.167342 0.43865 2.047672-0.06647-0.172854-0.850714-1.808334-0.784252-2.047672 0.06647zm-9.2411194 1.475457c0.4919729 0.425358 1.2365813-0.09304 1.4759195-0.691204-0.4786765-0.624744-2.2471212 0.03989-1.4759195 0.691204zm8.9751884-0.89059c-0.611642 0.55828 0.106377 1.143146 0.704719 0.757667 0.159557-0.106344-0.0133-0.624743-0.704719-0.757667z" stroke-width=".13294493"/>
<g transform="matrix(.1336824 0 0 .1336824 -1.0532868 -1.187227)">
<use opacity=".1" class="outline-big" xlink:href="#outline1" height="128" width="128" y="0" x="0" fill="none"/>
<use opacity=".2" class="outline-small" xlink:href="#outline1" height="128" width="128" y="0" x="0" fill="none"/>
<use class="black;" xlink:href="#outline1" height="128" width="128" y="0" x="0"/>
<use opacity=".2" clip-path="url(#clipoutline1)" class="stroke-highlight" xlink:href="#outline1" height="128" width="128" y="0" x="0" fill="none"/>
<use opacity=".5" class="specularity" xlink:href="#outline1" height="128" width="128" y="0" x="0" fill="url(#f)"/>
<use opacity=".25" class="low-specularity" xlink:href="#outline1" height="128" width="128" y="0" x="0" fill="url(#e)"/>
<path opacity=".5" d="m16.8 56.9c-11.1 11 8.4 7.9 23.4 13.8l31-54.5c-4.7-4.8-10.7-4.4-15 0z" class="specularity" fill="url(#d)"/>
<path fill="url(#a)" d="m43.9 103.6c-0.9 1.1-1.2 2.4-0.1 3.6 3.6 3.6 12 0.1 13.5 8.6 1.1 6.1 14.7 2.9 21.5-2 1.5-1.64 0.8-2.7-0.5-3.5-7.1 4.8-20 7.7-21 1.9-1.5-8.5-9.8-5.1-13.4-8.6z"/>
<path fill="url(#a)" d="m98.3 99.7c-2.3 3.7 2.3 6.7 6.4 4.4 0.6-0.7 0.5-2.1-0.6-3.5-2.4 1.2-4.7 0.5-5.8-0.9z"/>
<path fill="url(#a)" d="m41.6 98.7c-2.4 3.2-6.6 5.3-9.6 2.7-0.3-0.2-0.5-0.5-0.7-0.8-1.1 1.4-1.1 2.9 0.7 4.5 3.6 3.1 9.3-0.8 11-5.2-0.3-0.5-0.9-0.9-1.4-1.2z"/>
<path fill="url(#a)" d="m95.6 91.7c-3.4 7.1-11.3 2.5-19.8 11.1-1.4 1.5-0.6 2.3 0.7 3 8.7-8.2 16.7-2.9 19.7-11.8 0.2-0.9 0-1.6-0.6-2.3z"/>
<path fill="url(#a)" d="m103 91.3c-0.7 0.8-1.3 1.7-1.5 2.7 0 2.1 15.4 3.4 15.4-0.6-0.3-0.7-0.6-1.4-1.2-2.1-2.8 1.6-9.7 1.2-12.7 0z"/>
<path fill="url(#a)" d="m23.2 82.2c-1.3 0.9-2 1.9-0.9 2.9 3.5 3.7 21.5 7.1 25.2 10.7 0.9-1.2 1.2-2.4 0.1-3.6-3.4-3.4-19.4-6.6-24.4-10z"/>
<path fill="#fff" d="m44.3 73.7c-3.2 0-5.2 1.6 0.6 3.7 7.7 0.6 18.8 3.7 21.2 4.7 3.7-6.6-21-8.4-21.8-8.4z"/>
<path fill="url(#a)" d="m120 62.7c-2.7 8.9-25.5 12.3-33.4 17-1.1 1.1-0.4 2.1 0.9 3.1 9.8-4.9 35.7-8.7 32.5-20.1z"/>
<path fill="url(#a)" d="m8.9 61.7c-2.6 9.4 13.4 9.2 22.3 12.7 1.5-0.9 2.3-2 1.2-3-7.2-3.6-21.4-3.6-23.5-9.7z"/>
<path class="full-specularity" fill="url(#c)" d="m70.5 15.5 16.3 16.6c1.5 1.5 1.5 4.6 0.6 5.5l-8.1-6.6-1.6 9.7-6.7-3.6-10.9 6.9-3.6-14.5-5.8 12.6-14.5-0.1c-2.8 0-2.4-2.9 0.5-5.8 5.7-6.3 16.8-17 20.3-20.7 3.6-3.7 9.9-3.6 13.5 0z"/>
</g>
</svg>
