<?xml version="1.0" encoding="UTF-8" standalone="no"?>
<svg xmlns:rdf="http://www.w3.org/1999/02/22-rdf-syntax-ns#" xmlns="http://www.w3.org/2000/svg" version="1.1" xmlns:cc="http://creativecommons.org/ns#" xmlns:xlink="http://www.w3.org/1999/xlink" viewBox="0 0 16.040962 16" xmlns:dc="http://purl.org/dc/elements/1.1/">
<metadata>
<rdf:RDF>
<cc:Work rdf:about="">
<dc:format>image/svg+xml</dc:format>
<dc:type rdf:resource="http://purl.org/dc/dcmitype/StillImage"/>
</cc:Work>
</rdf:RDF>
</metadata>
<defs>
<linearGradient id="c">
<stop stop-color="#5a5a5a" offset="0"/>
<stop offset="1"/>
</linearGradient>
<linearGradient id="a" y2="181.7098" xlink:href="#c" gradientUnits="userSpaceOnUse" x2="977.9335" y1="178.3186" x1="968.8881"/>
<linearGradient id="e" y2="178.5336" gradientUnits="userSpaceOnUse" x2="964.1427" gradientTransform="translate(0,-2)" y1="180" x1="974.6495">
<stop stop-color="#ffbf00" offset="0"/>
<stop stop-color="#fff" offset="1"/>
</linearGradient>
<linearGradient id="d" y2="181.0888" xlink:href="#c" gradientUnits="userSpaceOnUse" x2="976.5202" gradientTransform="translate(0,-2)" y1="177.3404" x1="966.5179"/>
<linearGradient id="b" y2="184.8026" gradientUnits="userSpaceOnUse" x2="979.8044" y1="182.4686" x1="974.1975">
<stop stop-color="#fff" offset="0"/>
<stop stop-color="#aaa" offset="1"/>
</linearGradient>
</defs>
<g transform="translate(-964.95898,-168.96091)">
<rect style="color:#000000" height="16" width="16.00002" y="168.9609" x="964.959" stroke-width="1.4" fill="none"/>
<path stroke-linejoin="round" style="color:#000000" d="m969.5 182.5h11l-4-5h-11l4 5z" fill-rule="evenodd" transform="translate(-.0410002 .96088)" stroke="url(#a)" stroke-linecap="square" stroke-miterlimit="0" stroke-width=".9999474" fill="url(#b)"/>
<path stroke-linejoin="round" style="color:#000000" d="m969.5 180.5h11l-4-5h-11l4 5z" fill-rule="evenodd" stroke="url(#d)" stroke-linecap="square" stroke-miterlimit="0" stroke-width="1.0000004" fill="url(#e)"/>
<path fill-rule="evenodd" d="m973.5 176 2.5 3h-2v3l-1 1v-4h-2l2.5-3z"/>
<path stroke-linejoin="round" style="color:#000000" d="m969.5 182.5h11l-4-5h-11l4 5z" fill-rule="evenodd" transform="translate(-.0410002 -7.03912)" stroke="url(#a)" stroke-linecap="square" stroke-miterlimit="0" stroke-width=".9999474" fill="url(#b)"/>
</g>
</svg>
