<?xml version="1.0" encoding="UTF-8" standalone="no"?>
<svg xmlns:rdf="http://www.w3.org/1999/02/22-rdf-syntax-ns#" xmlns="http://www.w3.org/2000/svg" version="1.1" xmlns:cc="http://creativecommons.org/ns#" viewBox="0 0 16 16" xmlns:dc="http://purl.org/dc/elements/1.1/">
<metadata>
<rdf:RDF>
<cc:Work rdf:about="">
<dc:format>image/svg+xml</dc:format>
<dc:type rdf:resource="http://purl.org/dc/dcmitype/StillImage"/>
</cc:Work>
</rdf:RDF>
</metadata>
<g transform="translate(-709,-589.3622)">
<path opacity="0" transform="translate(0,512.3622)" d="m709 77h16v16h-16z"/>
<path fill="#5a5a5a" d="m712 591.36218h1v1h-1z"/>
<path fill="#5a5a5a" d="m712 593.36218h1v1h-1z"/>
<path fill="#5a5a5a" d="m712 595.36218h1v1h-1z"/>
<path fill="#5a5a5a" d="m712 597.36218h1v1h-1z"/>
<path fill="#5a5a5a" d="m712 599.36218h1v1h-1z"/>
<path fill="#5a5a5a" d="m712 601.36218h1v1h-1z"/>
<path fill="#5a5a5a" d="m712 603.36218h1v1h-1z"/>
<path fill="#5a5a5a" d="m714 603.36218h1v1h-1z"/>
<path fill="#5a5a5a" d="m716 603.36218h1v1h-1z"/>
<path fill="#5a5a5a" d="m718 603.36218h1v1h-1z"/>
<path fill="#5a5a5a" d="m720 603.36218h1v1h-1z"/>
<path fill="#5a5a5a" d="m720 601.36218h1v1h-1z"/>
<path fill="#5a5a5a" d="m720 599.36218h1v1h-1z"/>
<path fill="#5a5a5a" d="m720 597.36218h1v1h-1z"/>
<path fill="#5a5a5a" d="m720 595.36218h1v1h-1z"/>
<path fill="#5a5a5a" d="m720 593.36218h1v1h-1z"/>
<path fill="#5a5a5a" d="m720 591.36218h1v1h-1z"/>
<path fill="#5a5a5a" d="m718 591.36218h1v1h-1z"/>
<path fill="#5a5a5a" d="m716 591.36218h1v1h-1z"/>
<path fill="#5a5a5a" d="m714 591.36218h1v1h-1z"/>
</g>
</svg>
