<?xml version="1.0" encoding="UTF-8" standalone="no"?>
<svg xmlns:rdf="http://www.w3.org/1999/02/22-rdf-syntax-ns#" xmlns="http://www.w3.org/2000/svg" version="1.1" xmlns:cc="http://creativecommons.org/ns#" xmlns:xlink="http://www.w3.org/1999/xlink" viewBox="0 0 16.000858 16.001566" xmlns:dc="http://purl.org/dc/elements/1.1/">
<metadata>
<rdf:RDF>
<cc:Work rdf:about="">
<dc:format>image/svg+xml</dc:format>
<dc:type rdf:resource="http://purl.org/dc/dcmitype/StillImage"/>
</cc:Work>
</rdf:RDF>
</metadata>
<defs>
<linearGradient id="c" y2="350.1636" gradientUnits="userSpaceOnUse" x2="130.3522" y1="343.258" x1="121.1177">
<stop stop-color="#fffdf8" offset="0"/>
<stop stop-color="#cdccc7" offset="1"/>
</linearGradient>
<linearGradient id="b" y2="46.339" gradientUnits="userSpaceOnUse" x2="414.2602" gradientTransform="matrix(1.001797 0 0 .906445 -290.1978 295.2598)" y1="46.33899" x1="404.6787">
<stop stop-color="#fff" offset="0"/>
<stop stop-color="#98b6d3" offset="1"/>
</linearGradient>
<linearGradient id="a" y2="255.5312" gradientUnits="userSpaceOnUse" x2="12.53125" y1="251.0312" x1="9.03125">
<stop stop-color="#5a5a5a" offset="0"/>
<stop offset="1"/>
</linearGradient>
</defs>
<g stroke-linecap="round" transform="matrix(1 0 0 .996869 -115.05692 -334.20743)">
<g stroke-linejoin="round" stroke="#000" fill-rule="evenodd">
<rect style="color:#000000" height="11.99987" width="14.99917" y="338.8083" x="115.5577" stroke-width="1.0015693" fill="url(#c)"/>
<rect style="color:#000000" height="3.011261" width="14.99819" y="335.7579" x="115.5588" stroke-width="1.0015692" fill="url(#b)"/>
</g>
<g transform="translate(108.0577 89.23782)">
<path stroke-linejoin="round" style="color:#000000" d="m9.53125 251.5312v4l5.92788-4.0391v8l-5.92788-3.9609v4-8z" fill-rule="evenodd" stroke="url(#a)" stroke-width="1.0026059" fill="#ffd400"/>
<path d="m11.33756 255.4455 3.2458-2.2227" stroke="#fff" stroke-width="1.0026058px" fill="none"/>
</g>
</g>
</svg>
