<?xml version="1.0" encoding="UTF-8" standalone="no"?>
<svg xmlns:rdf="http://www.w3.org/1999/02/22-rdf-syntax-ns#" xmlns="http://www.w3.org/2000/svg" version="1.1" xmlns:cc="http://creativecommons.org/ns#" xmlns:xlink="http://www.w3.org/1999/xlink" viewBox="0 0 23 23.993073" xmlns:dc="http://purl.org/dc/elements/1.1/">
<metadata>
<rdf:RDF>
<cc:Work rdf:about="">
<dc:format>image/svg+xml</dc:format>
<dc:type rdf:resource="http://purl.org/dc/dcmitype/StillImage"/>
</cc:Work>
</rdf:RDF>
</metadata>
<defs>
<linearGradient id="c" y2="30.79385" xlink:href="#a" gradientUnits="userSpaceOnUse" x2="917.3691" gradientTransform="matrix(.791429 0 0 .832948 188.7144 -7.002499)" y1="15.86083" x1="900.9927"/>
<linearGradient id="a">
<stop stop-color="#fff" offset="0"/>
<stop stop-color="#aaa" offset="1"/>
</linearGradient>
<linearGradient id="b" y2="27.32372" gradientUnits="userSpaceOnUse" x2="922.5571" y1="20.45271" x1="915.0701">
<stop stop-color="#5a5a5a" offset="0"/>
<stop offset="1"/>
</linearGradient>
<linearGradient id="d" y2="30.79385" xlink:href="#a" gradientUnits="userSpaceOnUse" x2="917.3691" gradientTransform="matrix(.839788 0 0 .88527 150.222 -1.762836)" y1="19.21119" x1="904.083"/>
</defs>
<g transform="translate(-900.5,-4.991727)">
<path d="m916.5 5.984803h1v13.999997l-2 2h-14v-1h15v-14.999997z" fill-opacity=".1786744" fill-rule="evenodd"/>
<rect opacity=".5999999" stroke-linejoin="round" style="color:#000000" fill-rule="evenodd" height="14.99308" width="15.03714" stroke="#000" stroke-linecap="round" y="5.491727" x="901" stroke-width="1.0000001" fill="url(#c)"/>
<path d="m922.5 11.9848h1v15l-2 2h-15v-1h16v-16z" fill-opacity=".1786744" fill-rule="evenodd"/>
<rect stroke-linejoin="round" style="color:#000000" fill-rule="evenodd" height="15.93487" width="15.95595" stroke="#000" stroke-linecap="round" y="11.51622" x="906.0305" stroke-width="1.0000004" fill="url(#d)"/>
<g transform="translate(4.5246 -5.0161)">
<path d="m906.5 24.5-3-3 3-3m3 6 3-3-3-3" stroke="#000" stroke-linecap="square" stroke-width="1px" fill="none"/>
</g>
<g transform="translate(-.4822 -.0151991)">
<path d="m914.5068 19.4991h8.9409v8.94182h-8.9409v-8.94182z" fill-rule="evenodd" stroke="url(#b)" stroke-width=".9999998px" fill="#fff"/>
<path d="m919.0067 20.9991v6" stroke="#000" stroke-width="2" fill="none"/>
<path stroke-linejoin="round" d="m922.0067 23.9991h-6" stroke="#000" stroke-width="2" fill="none"/>
</g>
</g>
</svg>
